<svg width="46" height="71" viewBox="0 0 46 71" fill="none" xmlns="http://www.w3.org/2000/svg">
<path d="M27.8908 8.79982V5.16666C27.8979 4.49073 27.7709 3.82011 27.5172 3.19358C27.2634 2.56706 26.888 1.99707 26.4125 1.51659C25.937 1.03611 25.371 0.654673 24.7472 0.394355C24.1234 0.134036 23.4541 0 22.7782 0C22.1022 0 21.4329 0.134036 20.8091 0.394355C20.1853 0.654673 19.6193 1.03611 19.1438 1.51659C18.6684 1.99707 18.2929 2.56706 18.0391 3.19358C17.7854 3.82011 17.6584 4.49073 17.6655 5.16666V8.79982H12.4115V15.2526H33.1442V8.79982H27.8908Z" fill="#76E2F8"/>
<path d="M33.1442 8.7998V15.2526H12.4114V8.7998H2.25663C1.65813 8.7998 1.08415 9.03756 0.660951 9.46076C0.237751 9.88395 0 10.4579 0 11.0564V68.0362C0 68.6347 0.237751 69.2087 0.660951 69.6319C1.08415 70.0551 1.65813 70.2928 2.25663 70.2928H43.299C43.8975 70.2928 44.4715 70.0551 44.8947 69.6319C45.3179 69.2087 45.5556 68.6347 45.5556 68.0362V11.0564C45.5556 10.4579 45.3179 9.88395 44.8947 9.46076C44.4715 9.03756 43.8975 8.7998 43.299 8.7998H33.1442Z" fill="#596C76"/>
<path d="M8.03918 19.7659H37.5164V43.6371H8.03918V19.7659Z" fill="#FFF5F5"/>
<path d="M37.5164 50.1587H8.03928C7.77743 50.1587 7.52632 50.0547 7.34117 49.8695C7.15602 49.6844 7.052 49.4333 7.052 49.1714C7.052 48.9096 7.15602 48.6585 7.34117 48.4733C7.52632 48.2882 7.77743 48.1841 8.03928 48.1841H37.5164C37.7783 48.1841 38.0294 48.2882 38.2146 48.4733C38.3997 48.6585 38.5037 48.9096 38.5037 49.1714C38.5037 49.4333 38.3997 49.6844 38.2146 49.8695C38.0294 50.0547 37.7783 50.1587 37.5164 50.1587Z" fill="#465A61"/>
<path d="M33.7609 55.6942H11.7949C11.533 55.6942 11.2819 55.5901 11.0968 55.405C10.9116 55.2198 10.8076 54.9687 10.8076 54.7069C10.8076 54.445 10.9116 54.1939 11.0968 54.0088C11.2819 53.8236 11.533 53.7196 11.7949 53.7196H33.7609C34.0227 53.7196 34.2738 53.8236 34.459 54.0088C34.6441 54.1939 34.7482 54.445 34.7482 54.7069C34.7482 54.9687 34.6441 55.2198 34.459 55.405C34.2738 55.5901 34.0227 55.6942 33.7609 55.6942Z" fill="#465A61"/>
<path d="M37.5164 61.2297H8.03928C7.77743 61.2297 7.52632 61.1257 7.34117 60.9405C7.15602 60.7554 7.052 60.5042 7.052 60.2424C7.052 59.9806 7.15602 59.7294 7.34117 59.5443C7.52632 59.3591 7.77743 59.2551 8.03928 59.2551H37.5164C37.7783 59.2551 38.0294 59.3591 38.2146 59.5443C38.3997 59.7294 38.5037 59.9806 38.5037 60.2424C38.5037 60.5042 38.3997 60.7554 38.2146 60.9405C38.0294 61.1257 37.7783 61.2297 37.5164 61.2297Z" fill="#465A61"/>
<path d="M33.7609 66.7668H11.7949C11.533 66.7668 11.2819 66.6628 11.0968 66.4777C10.9116 66.2925 10.8076 66.0414 10.8076 65.7796C10.8076 65.5177 10.9116 65.2666 11.0968 65.0815C11.2819 64.8963 11.533 64.7923 11.7949 64.7923H33.7609C34.0227 64.7923 34.2738 64.8963 34.459 65.0815C34.6441 65.2666 34.7482 65.5177 34.7482 65.7796C34.7482 66.0414 34.6441 66.2925 34.459 66.4777C34.2738 66.6628 34.0227 66.7668 33.7609 66.7668Z" fill="#465A61"/>
<path d="M30.2139 37.802L25.1139 34.61C25.8621 34.61 26.5795 34.3128 27.1085 33.7838C27.6375 33.2548 27.9347 32.5373 27.9347 31.7892V28.9774C27.9347 27.6097 27.3914 26.298 26.4243 25.3309C25.4572 24.3638 24.1455 23.8205 22.7778 23.8205C21.4101 23.8205 20.0984 24.3638 19.1313 25.3309C18.1641 26.298 17.6208 27.6097 17.6208 28.9774V31.7892C17.6208 32.5373 17.918 33.2548 18.447 33.7838C18.976 34.3128 19.6935 34.61 20.4416 34.61L15.3416 37.8008C14.6931 38.2067 14.1584 38.7708 13.7877 39.4401C13.417 40.1094 13.2226 40.8619 13.2227 41.627V43.6365H32.3335V41.6281C32.3334 40.863 32.1389 40.1104 31.7682 39.4411C31.3974 38.7718 30.8626 38.2078 30.2139 37.802Z" fill="#FF9100"/>
</svg>
