<svg width="47" height="65" viewBox="0 0 47 65" fill="none" xmlns="http://www.w3.org/2000/svg">
<path d="M42.3951 64.7705H3.90571C1.74868 64.7705 0 63.0219 0 60.8648V7.81538C0 5.65834 1.74868 3.90967 3.90571 3.90967H42.3951C44.5521 3.90967 46.3008 5.65834 46.3008 7.81538V60.8648C46.3008 63.0219 44.5521 64.7705 42.3951 64.7705Z" fill="#F78E36"/>
<path d="M42.399 3.90967V64.7705C44.5539 64.7705 46.3008 63.0201 46.3008 60.8609V7.81943C46.3008 5.66012 44.5539 3.90967 42.399 3.90967Z" fill="#F86F1B"/>
<path d="M3.90179 60.3549V8.32542C3.90179 8.04597 4.12836 7.8194 4.40781 7.8194H41.8931C42.1726 7.8194 42.3991 8.04597 42.3991 8.32542V60.3549C42.3991 60.6343 42.1726 60.8609 41.8931 60.8609H4.40781C4.12836 60.8609 3.90179 60.6343 3.90179 60.3549Z" fill="#F3F3F3"/>
<path d="M36.0524 3.90963H10.2484C9.81653 3.90963 9.46649 3.55959 9.46649 3.12771V0.781927C9.46649 0.350039 9.81653 0 10.2484 0H36.0524C36.4843 0 36.8343 0.350039 36.8343 0.781927V3.12771C36.8343 3.55959 36.4843 3.90963 36.0524 3.90963Z" fill="#A9DBF5"/>
<path d="M36.0524 0H32.1428C32.5746 0 32.9247 0.350039 32.9247 0.781927V3.12771C32.9247 3.55959 32.5746 3.90963 32.1428 3.90963H36.0524C36.4843 3.90963 36.8343 3.55959 36.8343 3.12771V0.781927C36.8343 0.350039 36.4843 0 36.0524 0V0Z" fill="#88C3E0"/>
<path d="M33.1853 2.96088C32.6611 2.96088 32.2365 3.38568 32.2365 3.90966C32.2365 7.26698 29.5051 9.99834 26.1478 9.99834H20.1528C16.7955 9.99834 14.0642 7.26698 14.0642 3.90966C14.0642 3.38568 13.6395 2.96088 13.1154 2.96088C12.5913 2.96088 12.1666 3.38568 12.1666 3.90966C12.1666 8.3133 15.7492 11.8959 20.1528 11.8959H26.1478C30.5514 11.8959 34.134 8.3133 34.134 3.90966C34.134 3.38568 33.7094 2.96088 33.1853 2.96088Z" fill="#43809F"/>
<path d="M19.2408 55.4524H11.4214V48.6757C11.4214 48.0999 11.8882 47.6332 12.4639 47.6332H18.1981C18.7739 47.6332 19.2406 48.1 19.2406 48.6757V55.4524H19.2408Z" fill="#7BE492"/>
<path d="M18.1981 47.6331H15.331V55.4525H19.2406V48.6757C19.2408 48.0999 18.774 47.6331 18.1981 47.6331Z" fill="#45D987"/>
<path d="M34.8795 55.4524H27.0601V44.7659C27.0601 44.1901 27.5269 43.7234 28.1026 43.7234H33.8368C34.4126 43.7234 34.8793 44.1902 34.8793 44.7659V55.4524H34.8795Z" fill="#F78E36"/>
<path d="M33.8369 43.7234H30.9698V55.4524H34.8794V44.7659C34.8794 44.1902 34.4126 43.7234 33.8369 43.7234Z" fill="#F86F1B"/>
<path d="M27.06 55.4524H19.2406V39.553C19.2406 38.9772 19.7074 38.5105 20.2831 38.5105H26.0173C26.5932 38.5105 27.0599 38.9773 27.0599 39.553V55.4524H27.06Z" fill="#29CEF6"/>
<path d="M26.0175 38.5105H23.1504V55.4525H27.06V39.553C27.06 38.9772 26.5933 38.5105 26.0175 38.5105Z" fill="#22B5ED"/>
<path d="M20.9349 23.7839C20.9349 27.0954 18.2515 29.7787 14.9401 29.7787C11.6287 29.7787 8.94528 27.0953 8.94528 23.7839C8.94528 20.4724 11.6287 17.7891 14.9401 17.7891V23.7839H20.9349Z" fill="#FFC328"/>
<path d="M20.9349 23.7839H15.4461C15.1667 23.7839 14.9401 23.5573 14.9401 23.2779V17.7891C18.2515 17.7891 20.9349 20.4724 20.9349 23.7839Z" fill="#43809F"/>
<path d="M35.9885 27.5958C34.8886 28.9291 33.2244 29.7788 31.3607 29.7788C28.0492 29.7788 25.3659 27.0954 25.3659 23.784C25.3659 20.4725 28.0493 17.7892 31.3607 17.7892V23.784L35.9885 27.5958Z" fill="#FFC328"/>
<path d="M37.3557 23.7839C37.3557 25.2317 36.8422 26.5598 35.9885 27.5958L31.545 23.9357C31.4284 23.8395 31.3607 23.6963 31.3607 23.5452V17.7891C34.6722 17.7891 37.3557 20.4724 37.3557 23.7839Z" fill="#43809F"/>
<path d="M36.6864 54.5037H9.61438C9.09027 54.5037 8.66559 54.9285 8.66559 55.4524C8.66559 55.9764 9.09027 56.4012 9.61438 56.4012H36.6864C37.2105 56.4012 37.6352 55.9764 37.6352 55.4524C37.6352 54.9285 37.2105 54.5037 36.6864 54.5037Z" fill="#43809F"/>
</svg>
