<svg width="69" height="74" viewBox="0 0 69 74" fill="none" xmlns="http://www.w3.org/2000/svg">
<path d="M15.1122 47.156H20.0186V56.2698H13.3121V48.9561L15.1122 47.156Z" fill="#DFEEF4"/>
<path d="M20.7778 49.3647H21.521V53.7999H20.7778V49.3647Z" fill="#F2DA30"/>
<path d="M21.521 53.8L21.1494 54.8784L20.7778 53.8H21.521Z" fill="#3EA2E5"/>
<path d="M20.7778 49.3648L20.898 48.5475H21.4008L21.521 49.3648H20.7778Z" fill="#3EA2E5"/>
<path d="M15.1122 48.9561H13.3121L15.1122 47.156V48.9561Z" fill="#3EA2E5"/>
<path d="M14.6927 53.9694H15.22V55.1577H14.6927V53.9694Z" fill="#F2DA30"/>
<path d="M15.8322 53.1345H16.3594V55.1577H15.8322V53.1345Z" fill="#F2DA30"/>
<path d="M16.9714 53.4567H17.4987V55.1577H16.9714V53.4567Z" fill="#F2DA30"/>
<path d="M18.1108 52.5586H18.6381V55.1576H18.1108V52.5586Z" fill="#F2DA30"/>
<path d="M20.7781 52.0376H21.5213V52.314H20.7781V52.0376Z" fill="#DDC226"/>
<path d="M18.6379 51.0314H14.6927C14.656 51.0314 14.6208 51.0169 14.5949 50.991C14.569 50.965 14.5544 50.9299 14.5544 50.8932C14.5544 50.8566 14.569 50.8214 14.5949 50.7955C14.6208 50.7696 14.656 50.755 14.6927 50.755H18.6379C18.6745 50.755 18.7097 50.7696 18.7356 50.7955C18.7615 50.8214 18.7761 50.8566 18.7761 50.8932C18.7761 50.9299 18.7615 50.965 18.7356 50.991C18.7097 51.0169 18.6745 51.0314 18.6379 51.0314Z" fill="#6D7A84"/>
<path d="M18.6379 51.8946H14.6927C14.656 51.8946 14.6208 51.88 14.5949 51.8541C14.569 51.8282 14.5544 51.793 14.5544 51.7564C14.5544 51.7197 14.569 51.6846 14.5949 51.6586C14.6208 51.6327 14.656 51.6182 14.6927 51.6182H18.6379C18.6745 51.6182 18.7097 51.6327 18.7356 51.6586C18.7615 51.6846 18.7761 51.7197 18.7761 51.7564C18.7761 51.793 18.7615 51.8282 18.7356 51.8541C18.7097 51.88 18.6745 51.8946 18.6379 51.8946Z" fill="#6D7A84"/>
<path d="M18.6379 50.168H14.6927C14.656 50.168 14.6208 50.1535 14.5949 50.1276C14.569 50.1016 14.5544 50.0665 14.5544 50.0298C14.5544 49.9932 14.569 49.958 14.5949 49.9321C14.6208 49.9062 14.656 49.8916 14.6927 49.8916H18.6379C18.6745 49.8916 18.7097 49.9062 18.7356 49.9321C18.7615 49.958 18.7761 49.9932 18.7761 50.0298C18.7761 50.0665 18.7615 50.1016 18.7356 50.1276C18.7097 50.1535 18.6745 50.168 18.6379 50.168Z" fill="#6D7A84"/>
<path d="M18.6379 48.4064H16.5387C16.5021 48.4064 16.4669 48.3919 16.441 48.366C16.4151 48.34 16.4005 48.3049 16.4005 48.2682C16.4005 48.2316 16.4151 48.1964 16.441 48.1705C16.4669 48.1446 16.5021 48.13 16.5387 48.13H18.6379C18.6745 48.13 18.7097 48.1446 18.7356 48.1705C18.7615 48.1964 18.7761 48.2316 18.7761 48.2682C18.7761 48.3049 18.7615 48.34 18.7356 48.366C18.7097 48.3919 18.6745 48.4064 18.6379 48.4064Z" fill="#6D7A84"/>
<path d="M63 9H6V43H63V9Z" fill="#BCDFE3"/>
<path d="M34.5 59.0931C37.0265 59.0931 39.0747 57.045 39.0747 54.5184C39.0747 51.9919 37.0265 49.9437 34.5 49.9437C31.9735 49.9437 29.9253 51.9919 29.9253 54.5184C29.9253 57.045 31.9735 59.0931 34.5 59.0931Z" fill="#CFD8DC"/>
<path d="M27.6379 71.6737V65.6285C27.8166 61.9687 30.8359 59.0931 34.5001 59.0931C38.1642 59.0931 41.1835 61.9688 41.3622 65.6285V71.6737H27.6379Z" fill="#E91E63"/>
<path d="M56.2301 59.0931C58.7566 59.0931 60.8048 57.045 60.8048 54.5184C60.8048 51.9919 58.7566 49.9437 56.2301 49.9437C53.7036 49.9437 51.6554 51.9919 51.6554 54.5184C51.6554 57.045 53.7036 59.0931 56.2301 59.0931Z" fill="#CFD8DC"/>
<path d="M49.3679 71.6737V65.6285C49.5466 61.9687 52.5659 59.0931 56.23 59.0931C59.8942 59.0931 62.9135 61.9688 63.0921 65.6285V71.6737H49.3679Z" fill="#FF9801"/>
<path d="M12.7701 59.0931C15.2967 59.0931 17.3448 57.045 17.3448 54.5184C17.3448 51.9919 15.2967 49.9437 12.7701 49.9437C10.2436 49.9437 8.19543 51.9919 8.19543 54.5184C8.19543 57.045 10.2436 59.0931 12.7701 59.0931Z" fill="#CFD8DC"/>
<path d="M5.90784 71.6737V65.6285C6.00018 61.9298 9.07124 59.0051 12.77 59.0931C16.4687 59.0051 19.5396 61.9298 19.6321 65.6285V71.6737H5.90784Z" fill="#009688"/>
<path d="M3.62042 6.48358H65.3794C66.6428 6.48358 67.6669 7.50767 67.6669 8.771C67.6669 10.0343 66.6428 11.0584 65.3794 11.0584H3.62042C2.3571 11.0584 1.33301 10.0343 1.33301 8.771C1.33301 7.50767 2.3571 6.48358 3.62042 6.48358Z" fill="#607D8B"/>
<path d="M3.62042 40.7942H65.3794C66.6428 40.7942 67.6669 41.8183 67.6669 43.0816C67.6669 44.3449 66.6428 45.369 65.3794 45.369H3.62042C2.3571 45.369 1.33301 44.3449 1.33301 43.0816C1.33301 41.8183 2.3571 40.7942 3.62042 40.7942Z" fill="#607D8B"/>
<path d="M3.56092 6.48358H62.0078C63.2383 6.48358 64.2357 7.481 64.2357 8.71149V8.83037C64.2357 10.0609 63.2383 11.0583 62.0078 11.0583H3.56092C2.33043 11.0583 1.33301 10.0609 1.33301 8.83037V8.71149C1.33301 7.48113 2.33056 6.48358 3.56092 6.48358Z" fill="#CFD8DC"/>
<path d="M3.56092 40.7942H62.0078C63.2383 40.7942 64.2357 41.7916 64.2357 43.0221V43.141C64.2357 44.3715 63.2383 45.3689 62.0078 45.3689H3.56092C2.33043 45.3689 1.33301 44.3715 1.33301 43.141V43.0221C1.33301 41.7917 2.33056 40.7942 3.56092 40.7942Z" fill="#CFD8DC"/>
<path d="M2.47677 68.2427H66.5232C67.1549 68.2427 67.6669 68.7548 67.6669 69.3863V71.6737C67.6669 72.3054 67.1547 72.8174 66.5232 72.8174H2.47677C1.84511 72.8174 1.33313 72.3053 1.33313 71.6737V69.3863C1.333 68.7548 1.84511 68.2427 2.47677 68.2427Z" fill="#607D8B"/>
<path d="M2.44702 68.2427H63.1218C63.737 68.2427 64.2357 68.7414 64.2357 69.3566V71.7033C64.2357 72.3185 63.737 72.8172 63.1218 72.8172H2.44702C1.83184 72.8172 1.33313 72.3185 1.33313 71.7033V69.3566C1.333 68.7415 1.83184 68.2427 2.44702 68.2427Z" fill="#CFD8DC"/>
<path d="M65.3795 12.2021C67.2744 12.2021 68.8106 10.6659 68.8106 8.77108C68.8106 6.87623 67.2745 5.34003 65.3795 5.34003H3.62051C1.72566 5.34003 0.189453 6.87623 0.189453 8.77108C0.189453 10.6659 1.72566 12.2021 3.62051 12.2021H4.76415V39.6506H3.62051C1.72566 39.6506 0.189453 41.1868 0.189453 43.0817C0.189453 44.9765 1.72566 46.5127 3.62051 46.5127H65.3795C67.2744 46.5127 68.8106 44.9765 68.8106 43.0817C68.8106 41.1868 67.2745 39.6506 65.3795 39.6506H64.2359V12.2021H65.3795ZM2.47687 8.77108C2.47767 8.13982 2.98925 7.62825 3.62051 7.62744H65.3795C66.0112 7.62744 66.5232 8.13955 66.5232 8.77108C66.5232 9.40261 66.0112 9.91472 65.3795 9.91472H3.62051C2.98925 9.91392 2.47767 9.40234 2.47687 8.77108ZM66.5232 43.0817C66.5224 43.7129 66.0108 44.2245 65.3795 44.2253H3.62051C2.98885 44.2253 2.47687 43.7132 2.47687 43.0817C2.47687 42.4501 2.98898 41.938 3.62051 41.938H65.3795C66.0108 41.9388 66.5224 42.4504 66.5232 43.0817ZM61.9485 39.6506H7.05157V12.2021H61.9485V39.6506Z" fill="black"/>
<path d="M66.5232 67.0989H64.2358V65.6285C64.2064 62.7329 62.5448 60.102 59.9428 58.8313C61.7645 57.2762 62.424 54.7506 61.5952 52.5034C60.7665 50.2562 58.625 48.7635 56.2299 48.7635C53.8347 48.7635 51.6932 50.2562 50.8646 52.5034C50.0359 54.7506 50.6953 57.2762 52.517 58.8313C49.915 60.1021 48.2533 62.7329 48.224 65.6285V67.0989H42.5055V65.6285C42.4762 62.7329 40.8146 60.102 38.2125 58.8313C40.0342 57.2762 40.6938 54.7506 39.8649 52.5034C39.0363 50.2562 36.8948 48.7635 34.4996 48.7635C32.1045 48.7635 29.963 50.2562 29.1343 52.5034C28.3056 54.7506 28.965 57.2762 30.7867 58.8313C28.1847 60.1021 26.5231 62.7329 26.4937 65.6285V67.0989H20.7758V65.6285C20.7464 62.7329 19.0848 60.102 16.4828 58.8313C18.3045 57.2762 18.964 54.7506 18.1352 52.5034C17.3065 50.2562 15.1651 48.7635 12.7699 48.7635C10.3747 48.7635 8.23327 50.2562 7.40459 52.5034C6.57591 54.7506 7.23532 57.2762 9.05699 58.8313C6.45502 60.1021 4.79337 62.7329 4.76402 65.6285V67.0989H2.47687C1.21408 67.1001 0.190659 68.1236 0.189453 69.3863V71.6738C0.190659 72.9366 1.21408 73.9598 2.47687 73.9612H66.5233C67.7861 73.96 68.8094 72.9366 68.8107 71.6738V69.3863C68.8094 68.1236 67.786 67.1001 66.5232 67.0989ZM52.799 54.5183C52.799 52.6235 54.3352 51.0873 56.23 51.0873C58.1249 51.0873 59.6611 52.6235 59.6611 54.5183C59.6611 56.4132 58.1249 57.9494 56.23 57.9494C54.336 57.9474 52.8011 56.4124 52.799 54.5183ZM50.5117 65.6285C50.6898 62.6008 53.1971 60.2367 56.2301 60.2367C59.2631 60.2367 61.7704 62.6008 61.9486 65.6285V67.0989H50.5118V65.6285H50.5117ZM31.069 54.5183C31.069 52.6235 32.6052 51.0873 34.5 51.0873C36.395 51.0873 37.9311 52.6235 37.9311 54.5183C37.9311 56.4132 36.395 57.9494 34.5 57.9494C32.606 57.9474 31.071 56.4124 31.069 54.5183ZM28.7816 65.6285C28.9597 62.6008 31.467 60.2367 34.5 60.2367C37.533 60.2367 40.0402 62.6008 40.2185 65.6285V67.0989H28.7817V65.6285H28.7816ZM9.33898 54.5183C9.33898 52.6235 10.8752 51.0873 12.77 51.0873C14.6649 51.0873 16.2011 52.6235 16.2011 54.5183C16.2011 56.4132 14.6649 57.9494 12.77 57.9494C10.876 57.9474 9.34099 56.4124 9.33898 54.5183ZM7.05157 65.6285C7.1478 62.5632 9.70434 60.1528 12.77 60.2368C15.8356 60.1528 18.3923 62.5632 18.4885 65.6285V67.0989H7.05157V65.6285ZM2.47687 71.6736V69.3862H66.5233L66.5249 71.6736H2.47687Z" fill="black"/>
<path d="M25.2766 34.1295L32.776 31.7573C33.6178 34.0531 31.5899 34.78 31.9725 37.6114C32.1255 38.6827 32.929 38.3766 33.3881 39.5627L33.503 42.4706L35.9135 44.3837C36.2578 45.302 35.1099 46.3733 35.1099 46.3733C35.1099 46.3733 32.5846 49.2429 30.7863 48.9369C28.2611 48.5543 25.2766 34.1295 25.2766 34.1295Z" fill="#3E4E5C"/>
<path d="M31.9725 37.6113C31.6281 34.8947 33.3881 34.1295 32.8525 32.1016L28.1845 33.2112L25.2766 34.1295C25.2766 34.1295 25.3532 34.5503 25.5445 35.2773L32.1256 38.0322C32.049 37.9174 32.0107 37.8026 31.9725 37.6113Z" fill="#323E4A"/>
<path d="M15.1755 21.3499L19.2313 19.896C19.2696 21.6178 19.9583 24.5639 21.1444 27.8162C22.3305 31.0302 23.7462 33.7086 24.894 35.0478L20.8382 36.5017C18.0834 37.4965 14.6015 34.8947 13.0327 30.7241C11.464 26.5154 12.4206 22.3448 15.1755 21.3499Z" fill="#3E4E5C"/>
<path d="M42.5328 20.049C39.2805 11.287 38.2091 3.40503 39.8545 1.26239C39.6249 1.49196 39.357 1.79807 39.0509 2.2572C36.3343 6.27474 31.7811 14.922 16.1702 20.5083V20.5465C15.2137 20.8909 15.7493 24.7171 17.3563 29.0407C18.9634 33.4026 21.0294 36.6549 21.986 36.3106C37.5969 30.7243 46.7798 34.5888 51.5243 35.928C53.0165 36.3488 53.8583 35.8132 53.8583 35.8132C51.3713 36.7695 46.1676 29.7675 42.5328 20.049Z" fill="#5992BD"/>
<path d="M39.1275 4.97377C39.51 2.63974 39.6249 2.18061 39.7779 1.45364L39.8161 1.33881C39.6249 1.56837 39.357 1.83621 39.0892 2.25707C36.3343 6.2746 31.7811 14.9218 16.1702 20.5081V20.5464C15.7876 20.6994 15.6345 21.3882 15.711 22.4212L16.9737 22.0386C31.3602 16.9498 36.2961 9.22087 39.1275 4.97377Z" fill="#63A3D2"/>
<path d="M41.0789 0.11452C38.0562 1.22417 38.477 10.1392 42.0354 20.0108C45.5556 29.8824 50.8739 36.9992 53.8967 35.8513C56.9194 34.7416 56.4985 25.8266 52.9401 15.955C49.3817 6.08341 44.0633 -0.995126 41.0789 0.11452Z" fill="#487190"/>
<path d="M45.8234 23.837C42.3033 13.9654 41.8824 5.05037 44.8669 3.94072C45.5173 3.71116 46.2443 3.82589 47.0478 4.28512C44.8286 1.18585 42.6477 -0.459388 41.0789 0.114573C38.0562 1.22422 38.477 10.1393 42.0354 20.0109C44.8286 27.8164 48.7313 33.8617 51.7157 35.507C49.6496 32.6756 47.5452 28.5815 45.8234 23.837Z" fill="#426885"/>
<path d="M41.1553 15.9933C41.0023 16.0316 40.8874 16.1081 40.7727 16.1463C41.1171 17.409 41.538 18.6716 41.9971 20.0107C42.6858 21.9238 43.451 23.7604 44.2546 25.4439C44.3694 25.4057 44.4841 25.3674 44.5607 25.3291C47.1243 24.3726 48.4634 21.5411 47.5451 18.9394C46.5885 16.3759 43.7571 15.0368 41.1553 15.9933Z" fill="#EBEDEE"/>
<path d="M45.8232 23.8369C44.7901 21.0055 44.0632 18.2506 43.5658 15.7254C42.8005 15.6105 41.9587 15.6871 41.1553 15.9932C41.0023 16.0315 40.8874 16.108 40.7727 16.1462C41.1171 17.4089 41.538 18.6715 41.9971 20.0106C42.6858 21.9237 43.451 23.7603 44.2546 25.4439C44.3694 25.4056 44.4841 25.3673 44.5607 25.329C45.1346 25.1377 45.632 24.8316 46.0529 24.449C45.9763 24.2578 45.8998 24.0665 45.8232 23.8369Z" fill="#D9DADB"/>
</svg>
